PWD /Users/Maurits/Dropbox/ICDM_2018/content
INPUT /usr/local/texlive/2016/texmf.cnf
INPUT /usr/local/texlive/2016/texmf-dist/web2c/texmf.cnf
INPUT /usr/local/texlive/2016/texmf-var/web2c/pdftex/pdflatex.fmt
INPUT experiment.tex
OUTPUT experiment.log
INPUT /usr/local/texlive/2016/texmf-dist/fonts/map/fontname/texfonts.map
INPUT /usr/local/texlive/2016/texmf-dist/fonts/tfm/public/cm/cmbx10.tfm
INPUT /usr/local/texlive/2016/texmf-dist/fonts/tfm/public/cm/cmbx7.tfm
INPUT /usr/local/texlive/2016/texmf-dist/fonts/tfm/public/cm/cmbx5.tfm
INPUT /usr/local/texlive/2016/texmf-dist/fonts/tfm/public/cm/cmti10.tfm
INPUT /usr/local/texlive/2016/texmf-dist/tex/latex/base/omscmr.fd
INPUT /usr/local/texlive/2016/texmf-dist/tex/latex/base/omscmr.fd
