# Fdb version 3
["pdflatex"] 1528203945 "experiment.tex" "experiment.pdf" "experiment" 1528203946
  "/usr/local/texlive/2016/texmf-dist/fonts/map/fontname/texfonts.map" 1272929888 3287 e6b82fe08f5336d4d5ebc73fb1152e87 ""
  "/usr/local/texlive/2016/texmf-dist/fonts/tfm/public/cm/cmbx10.tfm" 1136768653 1328 c834bbb027764024c09d3d2bf908b5f0 ""
  "/usr/local/texlive/2016/texmf-dist/fonts/tfm/public/cm/cmbx5.tfm" 1136768653 1332 f817c21a1ba54560425663374f1b651a ""
  "/usr/local/texlive/2016/texmf-dist/fonts/tfm/public/cm/cmbx7.tfm" 1136768653 1336 3125ccb448c1a09074e3aa4a9832f130 ""
  "/usr/local/texlive/2016/texmf-dist/fonts/tfm/public/cm/cmti10.tfm" 1136768653 1480 aa8e34af0eb6a2941b776984cf1dfdc4 ""
  "/usr/local/texlive/2016/texmf-dist/tex/latex/base/omscmr.fd" 1454284088 2256 80ce1168fb4ce6a85583a9cf8972c013 ""
  "/usr/local/texlive/2016/texmf-dist/web2c/texmf.cnf" 1463093894 31953 b9489e6e586f798610c60aec1f5ec548 ""
  "/usr/local/texlive/2016/texmf-var/web2c/pdftex/pdflatex.fmt" 1483546879 3873396 bde46d807e7285aa38fde7439292998d ""
  "/usr/local/texlive/2016/texmf.cnf" 1463979140 577 2938757e76f31531e65cc647e3507693 ""
  "experiment.aux" 1528203945 8 a94a2480d3289e625eea47cd1b285758 ""
  "experiment.tex" 1528203943 14385 184ccd193169a074d372c69bed2c6eab ""
  (generated)
  "experiment.log"
  "experiment.pdf"
