%!PS-Adobe-3.0 EPSF-3.0
%%Creator: (MATLAB, The Mathworks, Inc. Version 8.6.0.267246 \(R2015b\). Operating System: Mac OS X)
%%Title: /Users/amina/Dropbox/ICDM_2018/images/epsilon.eps
%%CreationDate: 2018-05-20T21:50:13
%%Pages: (atend)
%%BoundingBox: 0 0 824 735
%%LanguageLevel: 2
%%EndComments
%%BeginProlog
%%BeginResource: procset (Apache XML Graphics Std ProcSet) 1.2 0
%%Version: 1.2 0
%%Copyright: (Copyright 2001-2003,2010 The Apache Software Foundation. License terms: http://www.apache.org/licenses/LICENSE-2.0)
/bd{bind def}bind def
/ld{load def}bd
/GR/grestore ld
/M/moveto ld
/LJ/setlinejoin ld
/C/curveto ld
/f/fill ld
/LW/setlinewidth ld
/GC/setgray ld
/t/show ld
/N/newpath ld
/CT/concat ld
/cp/closepath ld
/S/stroke ld
/L/lineto ld
/CC/setcmykcolor ld
/A/ashow ld
/GS/gsave ld
/RC/setrgbcolor ld
/RM/rmoveto ld
/ML/setmiterlimit ld
/re {4 2 roll M
1 index 0 rlineto
0 exch rlineto
neg 0 rlineto
cp } bd
/_ctm matrix def
/_tm matrix def
/BT { _ctm currentmatrix pop matrix _tm copy pop 0 0 moveto } bd
/ET { _ctm setmatrix } bd
/iTm { _ctm setmatrix _tm concat } bd
/Tm { _tm astore pop iTm 0 0 moveto } bd
/ux 0.0 def
/uy 0.0 def
/F {
  /Tp exch def
  /Tf exch def
  Tf findfont Tp scalefont setfont
  /cf Tf def  /cs Tp def
} bd
/ULS {currentpoint /uy exch def /ux exch def} bd
/ULE {
  /Tcx currentpoint pop def
  gsave
  newpath
  cf findfont cs scalefont dup
  /FontMatrix get 0 get /Ts exch def /FontInfo get dup
  /UnderlinePosition get Ts mul /To exch def
  /UnderlineThickness get Ts mul /Tt exch def
  ux uy To add moveto  Tcx uy To add lineto
  Tt setlinewidth stroke
  grestore
} bd
/OLE {
  /Tcx currentpoint pop def
  gsave
  newpath
  cf findfont cs scalefont dup
  /FontMatrix get 0 get /Ts exch def /FontInfo get dup
  /UnderlinePosition get Ts mul /To exch def
  /UnderlineThickness get Ts mul /Tt exch def
  ux uy To add cs add moveto Tcx uy To add cs add lineto
  Tt setlinewidth stroke
  grestore
} bd
/SOE {
  /Tcx currentpoint pop def
  gsave
  newpath
  cf findfont cs scalefont dup
  /FontMatrix get 0 get /Ts exch def /FontInfo get dup
  /UnderlinePosition get Ts mul /To exch def
  /UnderlineThickness get Ts mul /Tt exch def
  ux uy To add cs 10 mul 26 idiv add moveto Tcx uy To add cs 10 mul 26 idiv add lineto
  Tt setlinewidth stroke
  grestore
} bd
/QT {
/Y22 exch store
/X22 exch store
/Y21 exch store
/X21 exch store
currentpoint
/Y21 load 2 mul add 3 div exch
/X21 load 2 mul add 3 div exch
/X21 load 2 mul /X22 load add 3 div
/Y21 load 2 mul /Y22 load add 3 div
/X22 load /Y22 load curveto
} bd
/SSPD {
dup length /d exch dict def
{
/v exch def
/k exch def
currentpagedevice k known {
/cpdv currentpagedevice k get def
v cpdv ne {
/upd false def
/nullv v type /nulltype eq def
/nullcpdv cpdv type /nulltype eq def
nullv nullcpdv or
{
/upd true def
} {
/sametype v type cpdv type eq def
sametype {
v type /arraytype eq {
/vlen v length def
/cpdvlen cpdv length def
vlen cpdvlen eq {
0 1 vlen 1 sub {
/i exch def
/obj v i get def
/cpdobj cpdv i get def
obj cpdobj ne {
/upd true def
exit
} if
} for
} {
/upd true def
} ifelse
} {
v type /dicttype eq {
v {
/dv exch def
/dk exch def
/cpddv cpdv dk get def
dv cpddv ne {
/upd true def
exit
} if
} forall
} {
/upd true def
} ifelse
} ifelse
} if
} ifelse
upd true eq {
d k v put
} if
} if
} if
} forall
d length 0 gt {
d setpagedevice
} if
} bd
%%EndResource
%%BeginResource: procset (Apache XML Graphics EPS ProcSet) 1.0 0
%%Version: 1.0 0
%%Copyright: (Copyright 2002-2003 The Apache Software Foundation. License terms: http://www.apache.org/licenses/LICENSE-2.0)
/BeginEPSF { %def
/b4_Inc_state save def         % Save state for cleanup
/dict_count countdictstack def % Count objects on dict stack
/op_count count 1 sub def      % Count objects on operand stack
userdict begin                 % Push userdict on dict stack
/showpage { } def              % Redefine showpage, { } = null proc
0 setgray 0 setlinecap         % Prepare graphics state
1 setlinewidth 0 setlinejoin
10 setmiterlimit [ ] 0 setdash newpath
/languagelevel where           % If level not equal to 1 then
{pop languagelevel             % set strokeadjust and
1 ne                           % overprint to their defaults.
{false setstrokeadjust false setoverprint
} if
} if
} bd
/EndEPSF { %def
count op_count sub {pop} repeat            % Clean up stacks
countdictstack dict_count sub {end} repeat
b4_Inc_state restore
} bd
%%EndResource
%FOPBeginFontDict
%%IncludeResource: font Courier-Bold
%%IncludeResource: font Helvetica
%%IncludeResource: font Courier-BoldOblique
%%IncludeResource: font Courier-Oblique
%%IncludeResource: font Times-Roman
%%IncludeResource: font Helvetica-BoldOblique
%%IncludeResource: font Helvetica-Bold
%%IncludeResource: font Helvetica-Oblique
%%IncludeResource: font Times-BoldItalic
%%IncludeResource: font Courier
%%IncludeResource: font Times-Italic
%%IncludeResource: font Times-Bold
%%IncludeResource: font Symbol
%%IncludeResource: font ZapfDingbats
%FOPEndFontDict
%%BeginResource: encoding WinAnsiEncoding
/WinAnsiEncoding [
/.notdef /.notdef /.notdef /.notdef /.notdef
/.notdef /.notdef /.notdef /.notdef /.notdef
/.notdef /.notdef /.notdef /.notdef /.notdef
/.notdef /.notdef /.notdef /.notdef /.notdef
/.notdef /.notdef /.notdef /.notdef /.notdef
/.notdef /.notdef /.notdef /.notdef /.notdef
/.notdef /.notdef /space /exclam /quotedbl
/numbersign /dollar /percent /ampersand /quotesingle
/parenleft /parenright /asterisk /plus /comma
/hyphen /period /slash /zero /one
/two /three /four /five /six
/seven /eight /nine /colon /semicolon
/less /equal /greater /question /at
/A /B /C /D /E
/F /G /H /I /J
/K /L /M /N /O
/P /Q /R /S /T
/U /V /W /X /Y
/Z /bracketleft /backslash /bracketright /asciicircum
/underscore /quoteleft /a /b /c
/d /e /f /g /h
/i /j /k /l /m
/n /o /p /q /r
/s /t /u /v /w
/x /y /z /braceleft /bar
/braceright /asciitilde /bullet /Euro /bullet
/quotesinglbase /florin /quotedblbase /ellipsis /dagger
/daggerdbl /circumflex /perthousand /Scaron /guilsinglleft
/OE /bullet /Zcaron /bullet /bullet
/quoteleft /quoteright /quotedblleft /quotedblright /bullet
/endash /emdash /asciitilde /trademark /scaron
/guilsinglright /oe /bullet /zcaron /Ydieresis
/space /exclamdown /cent /sterling /currency
/yen /brokenbar /section /dieresis /copyright
/ordfeminine /guillemotleft /logicalnot /sfthyphen /registered
/macron /degree /plusminus /twosuperior /threesuperior
/acute /mu /paragraph /middot /cedilla
/onesuperior /ordmasculine /guillemotright /onequarter /onehalf
/threequarters /questiondown /Agrave /Aacute /Acircumflex
/Atilde /Adieresis /Aring /AE /Ccedilla
/Egrave /Eacute /Ecircumflex /Edieresis /Igrave
/Iacute /Icircumflex /Idieresis /Eth /Ntilde
/Ograve /Oacute /Ocircumflex /Otilde /Odieresis
/multiply /Oslash /Ugrave /Uacute /Ucircumflex
/Udieresis /Yacute /Thorn /germandbls /agrave
/aacute /acircumflex /atilde /adieresis /aring
/ae /ccedilla /egrave /eacute /ecircumflex
/edieresis /igrave /iacute /icircumflex /idieresis
/eth /ntilde /ograve /oacute /ocircumflex
/otilde /odieresis /divide /oslash /ugrave
/uacute /ucircumflex /udieresis /yacute /thorn
/ydieresis
] def
%%EndResource
%FOPBeginFontReencode
/Courier-Bold findfont
dup length dict begin
  {1 index /FID ne {def} {pop pop} ifelse} forall
  /Encoding WinAnsiEncoding def
  currentdict
end
/Courier-Bold exch definefont pop
/Helvetica findfont
dup length dict begin
  {1 index /FID ne {def} {pop pop} ifelse} forall
  /Encoding WinAnsiEncoding def
  currentdict
end
/Helvetica exch definefont pop
/Courier-BoldOblique findfont
dup length dict begin
  {1 index /FID ne {def} {pop pop} ifelse} forall
  /Encoding WinAnsiEncoding def
  currentdict
end
/Courier-BoldOblique exch definefont pop
/Courier-Oblique findfont
dup length dict begin
  {1 index /FID ne {def} {pop pop} ifelse} forall
  /Encoding WinAnsiEncoding def
  currentdict
end
/Courier-Oblique exch definefont pop
/Times-Roman findfont
dup length dict begin
  {1 index /FID ne {def} {pop pop} ifelse} forall
  /Encoding WinAnsiEncoding def
  currentdict
end
/Times-Roman exch definefont pop
/Helvetica-BoldOblique findfont
dup length dict begin
  {1 index /FID ne {def} {pop pop} ifelse} forall
  /Encoding WinAnsiEncoding def
  currentdict
end
/Helvetica-BoldOblique exch definefont pop
/Helvetica-Bold findfont
dup length dict begin
  {1 index /FID ne {def} {pop pop} ifelse} forall
  /Encoding WinAnsiEncoding def
  currentdict
end
/Helvetica-Bold exch definefont pop
/Helvetica-Oblique findfont
dup length dict begin
  {1 index /FID ne {def} {pop pop} ifelse} forall
  /Encoding WinAnsiEncoding def
  currentdict
end
/Helvetica-Oblique exch definefont pop
/Times-BoldItalic findfont
dup length dict begin
  {1 index /FID ne {def} {pop pop} ifelse} forall
  /Encoding WinAnsiEncoding def
  currentdict
end
/Times-BoldItalic exch definefont pop
/Courier findfont
dup length dict begin
  {1 index /FID ne {def} {pop pop} ifelse} forall
  /Encoding WinAnsiEncoding def
  currentdict
end
/Courier exch definefont pop
/Times-Italic findfont
dup length dict begin
  {1 index /FID ne {def} {pop pop} ifelse} forall
  /Encoding WinAnsiEncoding def
  currentdict
end
/Times-Italic exch definefont pop
/Times-Bold findfont
dup length dict begin
  {1 index /FID ne {def} {pop pop} ifelse} forall
  /Encoding WinAnsiEncoding def
  currentdict
end
/Times-Bold exch definefont pop
%FOPEndFontReencode
%%EndProlog
%%Page: 1 1
%%PageBoundingBox: 0 0 824 735
%%BeginPageSetup
[1 0 0 -1 0 735] CT
%%EndPageSetup
GS
1 GC
N
0 0 824 735 re
f
GR
GS
1 GC
N
0 0 824 735 re
f
GR
GS
1 GC
N
107 654 M
745.5 654 L
745.5 55 L
107 55 L
cp
f
GR
GS
0.149 GC
2 setlinecap
1 LJ
0.5 LW
N
107 654 M
745.5 654 L
S
GR
GS
0.149 GC
2 setlinecap
1 LJ
0.5 LW
N
107 55 M
745.5 55 L
S
GR
GS
0.149 GC
2 setlinecap
1 LJ
0.5 LW
N
107 654 M
107 647.615 L
S
GR
GS
0.149 GC
2 setlinecap
1 LJ
0.5 LW
N
213.417 654 M
213.417 647.615 L
S
GR
GS
0.149 GC
2 setlinecap
1 LJ
0.5 LW
N
319.833 654 M
319.833 647.615 L
S
GR
GS
0.149 GC
2 setlinecap
1 LJ
0.5 LW
N
426.25 654 M
426.25 647.615 L
S
GR
GS
0.149 GC
2 setlinecap
1 LJ
0.5 LW
N
532.667 654 M
532.667 647.615 L
S
GR
GS
0.149 GC
2 setlinecap
1 LJ
0.5 LW
N
639.083 654 M
639.083 647.615 L
S
GR
GS
0.149 GC
2 setlinecap
1 LJ
0.5 LW
N
745.5 654 M
745.5 647.615 L
S
GR
GS
0.149 GC
2 setlinecap
1 LJ
0.5 LW
N
107 55 M
107 61.385 L
S
GR
GS
0.149 GC
2 setlinecap
1 LJ
0.5 LW
N
213.417 55 M
213.417 61.385 L
S
GR
GS
0.149 GC
2 setlinecap
1 LJ
0.5 LW
N
319.833 55 M
319.833 61.385 L
S
GR
GS
0.149 GC
2 setlinecap
1 LJ
0.5 LW
N
426.25 55 M
426.25 61.385 L
S
GR
GS
0.149 GC
2 setlinecap
1 LJ
0.5 LW
N
532.667 55 M
532.667 61.385 L
S
GR
GS
0.149 GC
2 setlinecap
1 LJ
0.5 LW
N
639.083 55 M
639.083 61.385 L
S
GR
GS
0.149 GC
2 setlinecap
1 LJ
0.5 LW
N
745.5 55 M
745.5 61.385 L
S
GR
GS
0.149 GC
2 setlinecap
1 LJ
0.5 LW
N
139.035 654 M
139.035 650.807 L
S
GR
GS
0.149 GC
2 setlinecap
1 LJ
0.5 LW
N
157.774 654 M
157.774 650.807 L
S
GR
GS
0.149 GC
2 setlinecap
1 LJ
0.5 LW
N
171.069 654 M
171.069 650.807 L
S
GR
GS
0.149 GC
2 setlinecap
1 LJ
0.5 LW
N
181.382 654 M
181.382 650.807 L
S
GR
GS
0.149 GC
2 setlinecap
1 LJ
0.5 LW
N
189.808 654 M
189.808 650.807 L
S
GR
GS
0.149 GC
2 setlinecap
1 LJ
0.5 LW
N
196.933 654 M
196.933 650.807 L
S
GR
GS
0.149 GC
2 setlinecap
1 LJ
0.5 LW
N
203.104 654 M
203.104 650.807 L
S
GR
GS
0.149 GC
2 setlinecap
1 LJ
0.5 LW
N
208.547 654 M
208.547 650.807 L
S
GR
GS
0.149 GC
2 setlinecap
1 LJ
0.5 LW
N
245.451 654 M
245.451 650.807 L
S
GR
GS
0.149 GC
2 setlinecap
1 LJ
0.5 LW
N
264.19 654 M
264.19 650.807 L
S
GR
GS
0.149 GC
2 setlinecap
1 LJ
0.5 LW
N
277.486 654 M
277.486 650.807 L
S
GR
GS
0.149 GC
2 setlinecap
1 LJ
0.5 LW
N
287.799 654 M
287.799 650.807 L
S
GR
GS
0.149 GC
2 setlinecap
1 LJ
0.5 LW
N
296.225 654 M
296.225 650.807 L
S
GR
GS
0.149 GC
2 setlinecap
1 LJ
0.5 LW
N
303.349 654 M
303.349 650.807 L
S
GR
GS
0.149 GC
2 setlinecap
1 LJ
0.5 LW
N
309.521 654 M
309.521 650.807 L
S
GR
GS
0.149 GC
2 setlinecap
1 LJ
0.5 LW
N
314.964 654 M
314.964 650.807 L
S
GR
GS
0.149 GC
2 setlinecap
1 LJ
0.5 LW
N
351.868 654 M
351.868 650.807 L
S
GR
GS
0.149 GC
2 setlinecap
1 LJ
0.5 LW
N
370.607 654 M
370.607 650.807 L
S
GR
GS
0.149 GC
2 setlinecap
1 LJ
0.5 LW
N
383.903 654 M
383.903 650.807 L
S
GR
GS
0.149 GC
2 setlinecap
1 LJ
0.5 LW
N
394.215 654 M
394.215 650.807 L
S
GR
GS
0.149 GC
2 setlinecap
1 LJ
0.5 LW
N
402.642 654 M
402.642 650.807 L
S
GR
GS
0.149 GC
2 setlinecap
1 LJ
0.5 LW
N
409.766 654 M
409.766 650.807 L
S
GR
GS
0.149 GC
2 setlinecap
1 LJ
0.5 LW
N
415.937 654 M
415.937 650.807 L
S
GR
GS
0.149 GC
2 setlinecap
1 LJ
0.5 LW
N
421.381 654 M
421.381 650.807 L
S
GR
GS
0.149 GC
2 setlinecap
1 LJ
0.5 LW
N
458.285 654 M
458.285 650.807 L
S
GR
GS
0.149 GC
2 setlinecap
1 LJ
0.5 LW
N
477.024 654 M
477.024 650.807 L
S
GR
GS
0.149 GC
2 setlinecap
1 LJ
0.5 LW
N
490.319 654 M
490.319 650.807 L
S
GR
GS
0.149 GC
2 setlinecap
1 LJ
0.5 LW
N
500.632 654 M
500.632 650.807 L
S
GR
GS
0.149 GC
2 setlinecap
1 LJ
0.5 LW
N
509.058 654 M
509.058 650.807 L
S
GR
GS
0.149 GC
2 setlinecap
1 LJ
0.5 LW
N
516.182 654 M
516.182 650.807 L
S
GR
GS
0.149 GC
2 setlinecap
1 LJ
0.5 LW
N
522.354 654 M
522.354 650.807 L
S
GR
GS
0.149 GC
2 setlinecap
1 LJ
0.5 LW
N
527.797 654 M
527.797 650.807 L
S
GR
GS
0.149 GC
2 setlinecap
1 LJ
0.5 LW
N
564.701 654 M
564.701 650.807 L
S
GR
GS
0.149 GC
2 setlinecap
1 LJ
0.5 LW
N
583.44 654 M
583.44 650.807 L
S
GR
GS
0.149 GC
2 setlinecap
1 LJ
0.5 LW
N
596.736 654 M
596.736 650.807 L
S
GR
GS
0.149 GC
2 setlinecap
1 LJ
0.5 LW
N
607.049 654 M
607.049 650.807 L
S
GR
GS
0.149 GC
2 setlinecap
1 LJ
0.5 LW
N
615.475 654 M
615.475 650.807 L
S
GR
GS
0.149 GC
2 setlinecap
1 LJ
0.5 LW
N
622.599 654 M
622.599 650.807 L
S
GR
GS
0.149 GC
2 setlinecap
1 LJ
0.5 LW
N
628.771 654 M
628.771 650.807 L
S
GR
GS
0.149 GC
2 setlinecap
1 LJ
0.5 LW
N
634.214 654 M
634.214 650.807 L
S
GR
GS
0.149 GC
2 setlinecap
1 LJ
0.5 LW
N
671.118 654 M
671.118 650.807 L
S
GR
GS
0.149 GC
2 setlinecap
1 LJ
0.5 LW
N
689.857 654 M
689.857 650.807 L
S
GR
GS
0.149 GC
2 setlinecap
1 LJ
0.5 LW
N
703.153 654 M
703.153 650.807 L
S
GR
GS
0.149 GC
2 setlinecap
1 LJ
0.5 LW
N
713.465 654 M
713.465 650.807 L
S
GR
GS
0.149 GC
2 setlinecap
1 LJ
0.5 LW
N
721.892 654 M
721.892 650.807 L
S
GR
GS
0.149 GC
2 setlinecap
1 LJ
0.5 LW
N
729.016 654 M
729.016 650.807 L
S
GR
GS
0.149 GC
2 setlinecap
1 LJ
0.5 LW
N
735.187 654 M
735.187 650.807 L
S
GR
GS
0.149 GC
2 setlinecap
1 LJ
0.5 LW
N
740.631 654 M
740.631 650.807 L
S
GR
GS
0.149 GC
2 setlinecap
1 LJ
0.5 LW
N
139.035 55 M
139.035 58.193 L
S
GR
GS
0.149 GC
2 setlinecap
1 LJ
0.5 LW
N
157.774 55 M
157.774 58.193 L
S
GR
GS
0.149 GC
2 setlinecap
1 LJ
0.5 LW
N
171.069 55 M
171.069 58.193 L
S
GR
GS
0.149 GC
2 setlinecap
1 LJ
0.5 LW
N
181.382 55 M
181.382 58.193 L
S
GR
GS
0.149 GC
2 setlinecap
1 LJ
0.5 LW
N
189.808 55 M
189.808 58.193 L
S
GR
GS
0.149 GC
2 setlinecap
1 LJ
0.5 LW
N
196.933 55 M
196.933 58.193 L
S
GR
GS
0.149 GC
2 setlinecap
1 LJ
0.5 LW
N
203.104 55 M
203.104 58.193 L
S
GR
GS
0.149 GC
2 setlinecap
1 LJ
0.5 LW
N
208.547 55 M
208.547 58.193 L
S
GR
GS
0.149 GC
2 setlinecap
1 LJ
0.5 LW
N
245.451 55 M
245.451 58.193 L
S
GR
GS
0.149 GC
2 setlinecap
1 LJ
0.5 LW
N
264.19 55 M
264.19 58.193 L
S
GR
GS
0.149 GC
2 setlinecap
1 LJ
0.5 LW
N
277.486 55 M
277.486 58.193 L
S
GR
GS
0.149 GC
2 setlinecap
1 LJ
0.5 LW
N
287.799 55 M
287.799 58.193 L
S
GR
GS
0.149 GC
2 setlinecap
1 LJ
0.5 LW
N
296.225 55 M
296.225 58.193 L
S
GR
GS
0.149 GC
2 setlinecap
1 LJ
0.5 LW
N
303.349 55 M
303.349 58.193 L
S
GR
GS
0.149 GC
2 setlinecap
1 LJ
0.5 LW
N
309.521 55 M
309.521 58.193 L
S
GR
GS
0.149 GC
2 setlinecap
1 LJ
0.5 LW
N
314.964 55 M
314.964 58.193 L
S
GR
GS
0.149 GC
2 setlinecap
1 LJ
0.5 LW
N
351.868 55 M
351.868 58.193 L
S
GR
GS
0.149 GC
2 setlinecap
1 LJ
0.5 LW
N
370.607 55 M
370.607 58.193 L
S
GR
GS
0.149 GC
2 setlinecap
1 LJ
0.5 LW
N
383.903 55 M
383.903 58.193 L
S
GR
GS
0.149 GC
2 setlinecap
1 LJ
0.5 LW
N
394.215 55 M
394.215 58.193 L
S
GR
GS
0.149 GC
2 setlinecap
1 LJ
0.5 LW
N
402.642 55 M
402.642 58.193 L
S
GR
GS
0.149 GC
2 setlinecap
1 LJ
0.5 LW
N
409.766 55 M
409.766 58.193 L
S
GR
GS
0.149 GC
2 setlinecap
1 LJ
0.5 LW
N
415.937 55 M
415.937 58.193 L
S
GR
GS
0.149 GC
2 setlinecap
1 LJ
0.5 LW
N
421.381 55 M
421.381 58.193 L
S
GR
GS
0.149 GC
2 setlinecap
1 LJ
0.5 LW
N
458.285 55 M
458.285 58.193 L
S
GR
GS
0.149 GC
2 setlinecap
1 LJ
0.5 LW
N
477.024 55 M
477.024 58.193 L
S
GR
GS
0.149 GC
2 setlinecap
1 LJ
0.5 LW
N
490.319 55 M
490.319 58.193 L
S
GR
GS
0.149 GC
2 setlinecap
1 LJ
0.5 LW
N
500.632 55 M
500.632 58.193 L
S
GR
GS
0.149 GC
2 setlinecap
1 LJ
0.5 LW
N
509.058 55 M
509.058 58.193 L
S
GR
GS
0.149 GC
2 setlinecap
1 LJ
0.5 LW
N
516.182 55 M
516.182 58.193 L
S
GR
GS
0.149 GC
2 setlinecap
1 LJ
0.5 LW
N
522.354 55 M
522.354 58.193 L
S
GR
GS
0.149 GC
2 setlinecap
1 LJ
0.5 LW
N
527.797 55 M
527.797 58.193 L
S
GR
GS
0.149 GC
2 setlinecap
1 LJ
0.5 LW
N
564.701 55 M
564.701 58.193 L
S
GR
GS
0.149 GC
2 setlinecap
1 LJ
0.5 LW
N
583.44 55 M
583.44 58.193 L
S
GR
GS
0.149 GC
2 setlinecap
1 LJ
0.5 LW
N
596.736 55 M
596.736 58.193 L
S
GR
GS
0.149 GC
2 setlinecap
1 LJ
0.5 LW
N
607.049 55 M
607.049 58.193 L
S
GR
GS
0.149 GC
2 setlinecap
1 LJ
0.5 LW
N
615.475 55 M
615.475 58.193 L
S
GR
GS
0.149 GC
2 setlinecap
1 LJ
0.5 LW
N
622.599 55 M
622.599 58.193 L
S
GR
GS
0.149 GC
2 setlinecap
1 LJ
0.5 LW
N
628.771 55 M
628.771 58.193 L
S
GR
GS
0.149 GC
2 setlinecap
1 LJ
0.5 LW
N
634.214 55 M
634.214 58.193 L
S
GR
GS
0.149 GC
2 setlinecap
1 LJ
0.5 LW
N
671.118 55 M
671.118 58.193 L
S
GR
GS
0.149 GC
2 setlinecap
1 LJ
0.5 LW
N
689.857 55 M
689.857 58.193 L
S
GR
GS
0.149 GC
2 setlinecap
1 LJ
0.5 LW
N
703.153 55 M
703.153 58.193 L
S
GR
GS
0.149 GC
2 setlinecap
1 LJ
0.5 LW
N
713.465 55 M
713.465 58.193 L
S
GR
GS
0.149 GC
2 setlinecap
1 LJ
0.5 LW
N
721.892 55 M
721.892 58.193 L
S
GR
GS
0.149 GC
2 setlinecap
1 LJ
0.5 LW
N
729.016 55 M
729.016 58.193 L
S
GR
GS
0.149 GC
2 setlinecap
1 LJ
0.5 LW
N
735.187 55 M
735.187 58.193 L
S
GR
GS
0.149 GC
2 setlinecap
1 LJ
0.5 LW
N
740.631 55 M
740.631 58.193 L
S
GR
GS
[1 0 0 1 88 683] CT
0.149 GC
/Helvetica 20 F
GS
[1 0 0 1 0 0] CT
0 0 moveto 
1 -1 scale
(10) t 
GR
GR
GS
[1 0 0 1 111 673] CT
0.149 GC
/Helvetica 16 F
GS
[1 0 0 1 0 0] CT
0 0 moveto 
1 -1 scale
(-4) t 
GR
GR
GS
[1 0 0 1 194 683] CT
0.149 GC
/Helvetica 20 F
GS
[1 0 0 1 0 0] CT
0 0 moveto 
1 -1 scale
(10) t 
GR
GR
GS
[1 0 0 1 217 673] CT
0.149 GC
/Helvetica 16 F
GS
[1 0 0 1 0 0] CT
0 0 moveto 
1 -1 scale
(-3) t 
GR
GR
GS
[1 0 0 1 301 683] CT
0.149 GC
/Helvetica 20 F
GS
[1 0 0 1 0 0] CT
0 0 moveto 
1 -1 scale
(10) t 
GR
GR
GS
[1 0 0 1 324 673] CT
0.149 GC
/Helvetica 16 F
GS
[1 0 0 1 0 0] CT
0 0 moveto 
1 -1 scale
(-2) t 
GR
GR
GS
[1 0 0 1 407 683] CT
0.149 GC
/Helvetica 20 F
GS
[1 0 0 1 0 0] CT
0 0 moveto 
1 -1 scale
(10) t 
GR
GR
GS
[1 0 0 1 430 673] CT
0.149 GC
/Helvetica 16 F
GS
[1 0 0 1 0 0] CT
0 0 moveto 
1 -1 scale
(-1) t 
GR
GR
GS
[1 0 0 1 517 683] CT
0.149 GC
/Helvetica 20 F
GS
[1 0 0 1 0 0] CT
0 0 moveto 
1 -1 scale
(10) t 
GR
GR
GS
[1 0 0 1 540 673] CT
0.149 GC
/Helvetica 16 F
GS
[1 0 0 1 0 0] CT
0 0 moveto 
1 -1 scale
(0) t 
GR
GR
GS
[1 0 0 1 623 683] CT
0.149 GC
/Helvetica 20 F
GS
[1 0 0 1 0 0] CT
0 0 moveto 
1 -1 scale
(10) t 
GR
GR
GS
[1 0 0 1 646 673] CT
0.149 GC
/Helvetica 16 F
GS
[1 0 0 1 0 0] CT
0 0 moveto 
1 -1 scale
(1) t 
GR
GR
GS
[1 0 0 1 730 683] CT
0.149 GC
/Helvetica 20 F
GS
[1 0 0 1 0 0] CT
0 0 moveto 
1 -1 scale
(10) t 
GR
GR
GS
[1 0 0 1 753 673] CT
0.149 GC
/Helvetica 16 F
GS
[1 0 0 1 0 0] CT
0 0 moveto 
1 -1 scale
(2) t 
GR
GR
GS
[1 0 0 1 426.25031 688.5] CT
0.149 GC
/Helvetica 22 F
GS
[1 0 0 1 0 0] CT
-35 17 moveto 
1 -1 scale
(epsilon) t 
GR
GR
GS
0.149 GC
2 setlinecap
1 LJ
0.5 LW
N
107 654 M
107 55 L
S
GR
GS
0.149 GC
2 setlinecap
1 LJ
0.5 LW
N
745.5 654 M
745.5 55 L
S
GR
GS
0.149 GC
2 setlinecap
1 LJ
0.5 LW
N
107 654 M
113.385 654 L
S
GR
GS
0.149 GC
2 setlinecap
1 LJ
0.5 LW
N
107 579.125 M
113.385 579.125 L
S
GR
GS
0.149 GC
2 setlinecap
1 LJ
0.5 LW
N
107 504.25 M
113.385 504.25 L
S
GR
GS
0.149 GC
2 setlinecap
1 LJ
0.5 LW
N
107 429.375 M
113.385 429.375 L
S
GR
GS
0.149 GC
2 setlinecap
1 LJ
0.5 LW
N
107 354.5 M
113.385 354.5 L
S
GR
GS
0.149 GC
2 setlinecap
1 LJ
0.5 LW
N
107 279.625 M
113.385 279.625 L
S
GR
GS
0.149 GC
2 setlinecap
1 LJ
0.5 LW
N
107 204.75 M
113.385 204.75 L
S
GR
GS
0.149 GC
2 setlinecap
1 LJ
0.5 LW
N
107 129.875 M
113.385 129.875 L
S
GR
GS
0.149 GC
2 setlinecap
1 LJ
0.5 LW
N
107 55 M
113.385 55 L
S
GR
GS
0.149 GC
2 setlinecap
1 LJ
0.5 LW
N
745.5 654 M
739.115 654 L
S
GR
GS
0.149 GC
2 setlinecap
1 LJ
0.5 LW
N
745.5 579.125 M
739.115 579.125 L
S
GR
GS
0.149 GC
2 setlinecap
1 LJ
0.5 LW
N
745.5 504.25 M
739.115 504.25 L
S
GR
GS
0.149 GC
2 setlinecap
1 LJ
0.5 LW
N
745.5 429.375 M
739.115 429.375 L
S
GR
GS
0.149 GC
2 setlinecap
1 LJ
0.5 LW
N
745.5 354.5 M
739.115 354.5 L
S
GR
GS
0.149 GC
2 setlinecap
1 LJ
0.5 LW
N
745.5 279.625 M
739.115 279.625 L
S
GR
GS
0.149 GC
2 setlinecap
1 LJ
0.5 LW
N
745.5 204.75 M
739.115 204.75 L
S
GR
GS
0.149 GC
2 setlinecap
1 LJ
0.5 LW
N
745.5 129.875 M
739.115 129.875 L
S
GR
GS
0.149 GC
2 setlinecap
1 LJ
0.5 LW
N
745.5 55 M
739.115 55 L
S
GR
GS
[1 0 0 1 101 654] CT
0.149 GC
/Helvetica 20 F
GS
[1 0 0 1 0 0] CT
-23 5.5 moveto 
1 -1 scale
(44) t 
GR
GR
GS
[1 0 0 1 101 579.125] CT
0.149 GC
/Helvetica 20 F
GS
[1 0 0 1 0 0] CT
-23 5.5 moveto 
1 -1 scale
(45) t 
GR
GR
GS
[1 0 0 1 101 504.25] CT
0.149 GC
/Helvetica 20 F
GS
[1 0 0 1 0 0] CT
-23 5.5 moveto 
1 -1 scale
(46) t 
GR
GR
GS
[1 0 0 1 101 429.375] CT
0.149 GC
/Helvetica 20 F
GS
[1 0 0 1 0 0] CT
-23 5.5 moveto 
1 -1 scale
(47) t 
GR
GR
GS
[1 0 0 1 101 354.5] CT
0.149 GC
/Helvetica 20 F
GS
[1 0 0 1 0 0] CT
-23 5.5 moveto 
1 -1 scale
(48) t 
GR
GR
GS
[1 0 0 1 101 279.625] CT
0.149 GC
/Helvetica 20 F
GS
[1 0 0 1 0 0] CT
-23 5.5 moveto 
1 -1 scale
(49) t 
GR
GR
GS
[1 0 0 1 101 204.75] CT
0.149 GC
/Helvetica 20 F
GS
[1 0 0 1 0 0] CT
-23 5.5 moveto 
1 -1 scale
(50) t 
GR
GR
GS
[1 0 0 1 101 129.875] CT
0.149 GC
/Helvetica 20 F
GS
[1 0 0 1 0 0] CT
-23 5.5 moveto 
1 -1 scale
(51) t 
GR
GR
GS
[1 0 0 1 101 55] CT
0.149 GC
/Helvetica 20 F
GS
[1 0 0 1 0 0] CT
-23 5.5 moveto 
1 -1 scale
(52) t 
GR
GR
GS
[0 -1 1 0 75.5 354.49973] CT
0.149 GC
/Helvetica 22 F
GS
[1 0 0 1 0 0] CT
-44.5 -6 moveto 
1 -1 scale
(accuracy) t 
GR
GR
GS
0 0.447 0.741 RC
1 LJ
0.5 LW
N
107 654 M
287.799 272.138 L
319.833 114.9 L
338.572 152.338 L
351.868 159.825 L
362.181 302.088 L
745.5 354.5 L
S
GR
GS
0 0.447 0.741 RC
10.0 ML
N
105.16 655.84 M
105.16 651.16 L
109.84 651.16 L
109.84 655.84 L
cp
S
GR
GS
0 0.447 0.741 RC
10.0 ML
N
285.16 274.84 M
285.16 270.16 L
289.84 270.16 L
289.84 274.84 L
cp
S
GR
GS
0 0.447 0.741 RC
10.0 ML
N
317.16 116.84 M
317.16 112.16 L
321.84 112.16 L
321.84 116.84 L
cp
S
GR
GS
0 0.447 0.741 RC
10.0 ML
N
336.16 154.84 M
336.16 150.16 L
340.84 150.16 L
340.84 154.84 L
cp
S
GR
GS
0 0.447 0.741 RC
10.0 ML
N
349.16 161.84 M
349.16 157.16 L
353.84 157.16 L
353.84 161.84 L
cp
S
GR
GS
0 0.447 0.741 RC
10.0 ML
N
360.16 304.84 M
360.16 300.16 L
364.84 300.16 L
364.84 304.84 L
cp
S
GR
GS
0 0.447 0.741 RC
10.0 ML
N
743.16 356.84 M
743.16 352.16 L
747.84 352.16 L
747.84 356.84 L
cp
S
GR
%%Trailer
%%Pages: 1
%%EOF
