\relax 
\citation{jonschkowski2015patterns}
\citation{pmlr-v70-mollaysa17a}
\@writefile{toc}{\contentsline {section}{\numberline {I}Introduction}{1}}
\newlabel{Introduction}{{I}{1}}
\citation{jonschkowski2015patterns}
\citation{Krizhevsky2012-sz}
\citation{lemley2017smart}
\citation{Hauberg2015-jh}
\citation{Kingma2013-hf}
\citation{Goodfellow2014-hb}
\citation{Mirza2014-yz}
\citation{Sixt2016-aw}
\citation{Zhu2017-ud}
\citation{Bao2017-pl}
\citation{Antoniou2017-dp}
\citation{Zhu2017-yy}
\citation{lemley2017smart}
\citation{li2010improving}
\citation{li2015towards}
\citation{Miyato2017-wi}
\@writefile{toc}{\contentsline {section}{\numberline {II}Related Work}{2}}
\citation{pmlr-v70-mollaysa17a}
\@writefile{toc}{\contentsline {section}{\numberline {III}Critical data augmentation}{3}}
\@writefile{toc}{\contentsline {subsection}{\numberline {\unhbox \voidb@x \hbox {III-A}}Data augmentation with feature side-information}{3}}
\newlabel{transformation}{{\unhbox \voidb@x \hbox {III-A}}{3}}
\newlabel{eq:nonLinearModelConstraint}{{3}{3}}
\newlabel{Initial_model}{{4}{3}}
\@writefile{toc}{\contentsline {subsection}{\numberline {\unhbox \voidb@x \hbox {III-B}}Augmented data screening}{3}}
\newlabel{condition}{{6}{4}}
\newlabel{Final_model}{{8}{4}}
\@writefile{toc}{\contentsline {section}{\numberline {IV}Optimization}{4}}
\citation{DBLP:journals/corr/KingmaB14}
\citation{mikolov2013distributed}
\citation{kusner2015word}
\citation{salton1988term}
\@writefile{toc}{\contentsline {section}{\numberline {V}Experimental setup}{5}}
\@writefile{toc}{\contentsline {subsection}{\numberline {\unhbox \voidb@x \hbox {V-A}}Artificial data}{5}}
\newlabel{accuracy_curbe}{{\unhbox \voidb@x \hbox {V-A}}{5}}
\@writefile{lof}{\contentsline {figure}{\numberline {1}{\ignorespaces The accuracy curve for the synthetic data \textup  {\uppercase {i}} with respect to different values of $\epsilon $. When $\epsilon = 0$, the model is equivalent to training only on the existing training instances. Contrarily when $\epsilon = \infty $, the model accepts all the augmentation and trains on both the original and augmented data.}}{5}}
\@writefile{toc}{\contentsline {subsection}{\numberline {\unhbox \voidb@x \hbox {V-B}}Real World Datasets}{5}}
\@writefile{lot}{\contentsline {table}{\numberline {I}{\ignorespaces statistics of the dataset, sparsity level of S denotes the percentage of nonzero elements of S, the noise level is the percentage of the nonzero entries which is artificially added, it corresponding to the wrong feature similarity}}{6}}
\newlabel{artificial2}{{I}{6}}
\@writefile{lot}{\contentsline {table}{\numberline {II}{\ignorespaces Classification accuracy. CDA: neural network trained on training data and filtered augmented data. DA: Neural network trained on training data and augmented data. NN: neural network trained only on the existing training data. The $+,-$ and $=$ signs give the significance test results of a comparison of the relative performance of a given model to those on its right. +/=/- refers to significantly better/ equal/ worse.}}{6}}
\newlabel{artificial2}{{II}{6}}
\@writefile{lot}{\contentsline {table}{\numberline {III}{\ignorespaces Dataset description}}{6}}
\newlabel{tabel1}{{III}{6}}
\@writefile{lot}{\contentsline {table}{\numberline {IV}{\ignorespaces Accuracy and statistical significance, The $+,-$ and $=$ signs give the significance test results of the comparison of the relative performance of a given model to those on its right.}}{6}}
\newlabel{tabel3}{{IV}{6}}
\@writefile{toc}{\contentsline {section}{\numberline {VI}Conclusion and future work}{6}}
\citation{langley00}
\bibstyle{unsrt}
\bibdata{main_paper}
\bibcite{jonschkowski2015patterns}{1}
\bibcite{pmlr-v70-mollaysa17a}{2}
\bibcite{Krizhevsky2012-sz}{3}
\bibcite{lemley2017smart}{4}
\bibcite{Hauberg2015-jh}{5}
\bibcite{Kingma2013-hf}{6}
\bibcite{Goodfellow2014-hb}{7}
\bibcite{Mirza2014-yz}{8}
\bibcite{Sixt2016-aw}{9}
\bibcite{Zhu2017-ud}{10}
\bibcite{Bao2017-pl}{11}
\bibcite{Antoniou2017-dp}{12}
\bibcite{Zhu2017-yy}{13}
\bibcite{li2010improving}{14}
\bibcite{li2015towards}{15}
\bibcite{Miyato2017-wi}{16}
\bibcite{DBLP:journals/corr/KingmaB14}{17}
\bibcite{mikolov2013distributed}{18}
\bibcite{kusner2015word}{19}
\bibcite{salton1988term}{20}
\@writefile{toc}{\contentsline {section}{References}{7}}
